Files,t1,t2,t3,t4,t5,t6,t7,t8,t9,t10,promedio
50,9.977500303648412e-05,7.176499639172107e-05,7.300699508050457e-05,6.713400216540322e-05,7.478099723812193e-05,7.369399827439338e-05,7.25960053387098e-05,7.177599763963372e-05,7.87619937909767e-05,7.184100104495883e-05,7.280150020960718e-05
100,0.00014682499750051647,0.00016099100321298465,0.00015961800090735778,0.00014699299936182797,0.0001505719992564991,0.00017242500325664878,0.0001624489959795028,0.00016907399549381807,0.0001475690005463548,0.00015142900520004332,0.00015552350305370055
150,0.00026876100309891626,0.00024726599804125726,0.000256113002251368,0.00023151600180426612,0.00022663200070383027,0.00024627899983897805,0.0002505899974494241,0.0002345809989492409,0.00027342500106897205,0.00023513899941463023,0.00024677249894011766
200,0.00031249500170815736,0.00036407799780135974,0.0003239389989175834,0.00034141600190196186,0.0003259959994466044,0.00033906399767147377,0.0003264940023655072,0.0003363289943081327,0.0003255019983043894,0.0003249810033594258,0.0003262450009060558
250,0.0004107100030523725,0.000425564001488965,0.00041130900353891775,0.0004241310016368516,0.0004342579995864071,0.0004195630026515573,0.00041093400068348274,0.0004195709989289753,0.0004074949974892661,0.00040809599886415526,0.00041543600309523754
300,0.0005509720067493618,0.0005629939987557009,0.0005114379964652471,0.0004864270013058558,0.0005433330006781034,0.0005177310013095848,0.0005024259953643195,0.0005325329984771088,0.0005292490022839047,0.0005186620037420653,0.000523955503012985
350,0.0006153989961603656,0.0006303100017248653,0.0006069949959055521,0.0006147210006020032,0.0006248860008781776,0.0006039729996700771,0.0005857670039404184,0.0006368059985106811,0.0006197479960974306,0.000622251995082479,0.0006175734961288981
400,0.0007503469969378784,0.0007057589973555878,0.0007302559970412403,0.0007249410045915283,0.0006905370028107427,0.0006915470003150403,0.0006921609965502284,0.0007215020013973117,0.0008281409973278642,0.001472890995501075,0.00072322150299442
450,0.0016068499971879646,0.000867342998390086,0.0008429240042460151,0.0008217259965022095,0.0008288960016216151,0.0008519559996784665,0.0008304520015371963,0.0008298829998238944,0.0008405389962717891,0.0008436499992967583,0.0008417315002589021
500,0.0009115969951380976,0.0009592420028639026,0.0008997210024972446,0.000926512002479285,0.0009485689952271059,0.0009280080048483796,0.0009965489953174256,0.0009488089999649674,0.0013572139941970818,0.0011790249991463497,0.0009486889975960366
550,0.0010725379979703575,0.001036139001371339,0.0010353969992138445,0.0010787330029415898,0.0011376519978512079,0.0010533380045671947,0.0011018739969586022,0.0012582380004459992,0.0011486539951874875,0.0010467710017110221,0.0010756355004559737
600,0.0011921830009669065,0.0011932220004382543,0.001105078998079989,0.0012048889984725975,0.0010980849983752705,0.0011080099939135835,0.0011272060000919737,0.0016861559997778386,0.0013519359999918379,0.0011852030002046376,0.001188693000585772
650,0.001313106004090514,0.001255696995940525,0.001264580998395104,0.0012422910003806464,0.0012703559987130575,0.0012670810028794222,0.0016977060004137456,0.0014046229989617132,0.0012593089995789342,0.0012272139938431792,0.001265831000637263
700,0.0013883470019209199,0.001261908000742551,0.0012784999998984858,0.0012972699987585656,0.0012991490002605133,0.0014175570031511597,0.002033466000284534,0.0013518699997803196,0.0013111529988236725,0.0013151640014257282,0.0013131585001247004
750,0.0014494410061161034,0.0014743079955223948,0.0014340839989017695,0.0014885990021866746,0.0014453170006163418,0.0018074180043186061,0.0016746080000302754,0.001451519005058799,0.0015105829952517524,0.0013987009951961227,0.0014629135002905969
800,0.0016031060004024766,0.0015683009987697005,0.0014907509976183064,0.0015318480000132695,0.0015724530021543615,0.0022030399995855987,0.0015856239988352172,0.0016225979998125695,0.001575020003656391,0.0014899529996910132,0.0015737365029053763
850,0.0016675669976393692,0.001701271001365967,0.0015966320061124861,0.001647058998059947,0.0016282450014841743,0.002240125999378506,0.0017514790015411563,0.0018036300025414675,0.0015569669994874857,0.0017570499985595234,0.0016844189995026682
900,0.0016244990038103424,0.001752105999912601,0.0016544859972782433,0.0017142180004157126,0.001843614001700189,0.0021652850045938976,0.0018834650036296807,0.0018122889960068278,0.0017427060010959394,0.0017388070045853965,0.0017474060005042702
950,0.001873198001703713,0.001820696001232136,0.0017571290009072982,0.0018641540009411983,0.002577890998509247,0.001943862000189256,0.0018539579978096299,0.0017979850017582066,0.0018407419993309304,0.0018298689974471927,0.0018473499985702801
1000,0.0018789750029100105,0.001976505998754874,0.001970436002011411,0.002021351996518206,0.0028907649975735694,0.0020387840049806982,0.002105448998918291,0.001991140998143237,0.0019507399993017316,0.0019470089973765425,0.0019838234984490555
1050,0.0021208830003160983,0.0020732440025312826,0.002100566001900006,0.001996366001549177,0.002806363998388406,0.0021476070032804273,0.002131102002749685,0.002282522000314202,0.0021326610003598034,0.00213602800067747,0.0021318815015547443
1100,0.002188842998293694,0.0021319070001482032,0.002282866000314243,0.0025295480008935556,0.0024516159974155016,0.0022789440045016818,0.0022003720005159266,0.0021559719971264713,0.002236539003206417,0.002171200998418499,0.002218455501861172
1150,0.0022486109955934808,0.0022475360019598156,0.002481030998751521,0.002974934999656398,0.0024288429995067418,0.0023326579976128414,0.0023796679961378686,0.002357028999540489,0.002291234995936975,0.0023015549959382042,0.0023448434985766653
1200,0.0023560980043839663,0.002400909004791174,0.002379115998337511,0.003147684001305606,0.002465843004756607,0.002422624995233491,0.0023149269982241094,0.0025439620003453456,0.0023349420007434674,0.00237843299692031,0.0023900125015643425
1250,0.0023859139982960187,0.0025039860047399998,0.002449186002195347,0.0034326150052947924,0.002581859997007996,0.002634737000335008,0.002714113004913088,0.0026911059976555407,0.0026307929947506636,0.0027616820007096976,0.0026327649975428358
1300,0.0026575459996820427,0.002580517997557763,0.002647033004905097,0.003511187998810783,0.002757174996077083,0.002633290001540445,0.002635560005728621,0.0027301500012981705,0.002632214003824629,0.0026105829965672456,0.002641296505316859
1350,0.0026877490017795935,0.002679458004422486,0.0029580979971797206,0.003330223997181747,0.002829616998496931,0.00286252899968531,0.002727301005506888,0.002901823005231563,0.0027112329989904538,0.0027435299998614937,0.0027865734991792124
1400,0.0026617539988365024,0.0029805980011587963,0.0027221760028623976,0.003208662004908547,0.0029514699999708682,0.002884187997551635,0.002900307001254987,0.002879065003071446,0.002747126003669109,0.002942003993666731,0.002892247499403311
1450,0.0028398530048434623,0.002959254998131655,0.003107925003860146,0.0031760099955135956,0.0029651259974343702,0.0029839869966963306,0.002875528000004124,0.00283507499989355,0.0029432579976855777,0.002871114993467927,0.0029512564979086164
1500,0.002993622998474166,0.0029070640011923388,0.003281268000137061,0.003311959000711795,0.0031668669980717823,0.0032444340031361207,0.003072510997299105,0.0029756739968433976,0.003037984002730809,0.0030910999994375743,0.0030818054983683396
1550,0.003183738997904584,0.003382958995644003,0.0031414920013048686,0.0033520030046929605,0.0032492039972567,0.003268466993176844,0.003141696004604455,0.0030458690016530454,0.0031768769986229017,0.00306026099860901,0.0031803079982637428
1600,0.0032746810029493645,0.003198187994712498,0.0036409810054465197,0.003313364999485202,0.0034356059986748733,0.0034032960029435344,0.0034079940014635213,0.0034857389982789755,0.0034970100023201667,0.003562174999387935,0.0034218000000691973
1650,0.0034132289947592653,0.003717857995070517,0.0039528659981442615,0.003482013999018818,0.003749041999981273,0.0036189500024192967,0.003587473001971375,0.0035137529994244687,0.003698664004332386,0.003954507999878842,0.0036588070033758413
1700,0.0037340389972086996,0.003858080002828501,0.0038506620039697737,0.0037637330024153925,0.0037530720001086593,0.003752889002498705,0.0036308659982751124,0.0034377950069028884,0.003816268996160943,0.0036194959975546226,0.003752980501303682
1750,0.0036576299971784465,0.0036031389972777106,0.003991607001808006,0.003579755997634493,0.0036918629994033836,0.003935464003006928,0.00377454800036503,0.0035587810052675195,0.0037244659979478456,0.0035828750042128377,0.003674746498290915
1800,0.0038555209976038896,0.0037925249998806976,0.004031784999824595,0.0038682200029143132,0.0038023429951863363,0.003874073998304084,0.0038162380005815066,0.003835973999230191,0.0041078870053752325,0.0038422209981945343,0.003848870997899212
1850,0.0037646209966624156,0.004012264995253645,0.004254813997249585,0.003966176001995336,0.004148517997236922,0.003910661005647853,0.00393132799945306,0.00413608799863141,0.004149984997638967,0.003992270001617726,0.004002267498435685
1900,0.003994012004113756,0.0040396800031885505,0.004184004996204749,0.004268682998372242,0.003997230000095442,0.00405315900570713,0.003949858000851236,0.004071498005941976,0.004261763002432417,0.004073224001331255,0.004062328505824553
1950,0.004390394002257381,0.004151455999817699,0.004206356999929994,0.004016160994069651,0.004493756001465954,0.004215827000734862,0.004353197000455111,0.0041736280036275275,0.004119149001780897,0.004493521999393124,0.004211092000332428
2000,0.004315963997214567,0.004325793997850269,0.004364624997833744,0.004513690997555386,0.004296110993891489,0.004196836001938209,0.004600045002007391,0.004380218000733294,0.004309864998504054,0.004291958000976592,0.004320878997532418
2050,0.004546716998447664,0.004444482998223975,0.004524969001067802,0.00428338699566666,0.0046482010002364404,0.004662198000005446,0.005234847994870506,0.004544061004708055,0.004385275002277922,0.004438260002643801,0.004534515002887929
2100,0.0046089699972071685,0.004535136999038514,0.004418092001287732,0.005147566000232473,0.004337776997999754,0.0044520599985844456,0.004581374996632803,0.004572122001263779,0.004484313998545986,0.004395037998619955,0.00450972549879225
2150,0.0046104159991955385,0.004755472000397276,0.004875989994616248,0.0046498419978888705,0.004566039999190252,0.004755046000354923,0.00458516800426878,0.0045940100026200525,0.004619843006366864,0.004583611000271048,0.004615129502781201
2200,0.005156407001777552,0.005189677998714615,0.004923480002616998,0.0050519100041128695,0.004794766995473765,0.0047318130018538795,0.004718905001936946,0.004734134003228974,0.005043005003244616,0.0047733059982419945,0.004859123499045381
2250,0.004719055999885313,0.004945829001371749,0.00508437400276307,0.005133735001436435,0.004817444998479914,0.004912485004751943,0.004934333999699447,0.005065959005150944,0.005004161001124885,0.004864403999818023,0.004940081500535598
2300,0.004992693997337483,0.00527655200130539,0.005124903000250924,0.004894235993560869,0.005128496995894238,0.0050679339983616956,0.00499620899790898,0.005141803005244583,0.005062627998995595,0.005265617000986822,0.00509641849930631
2350,0.005083502997877076,0.005689524994522799,0.005708207994757686,0.005244699998002034,0.005430910998256877,0.005330744999810122,0.005024486003094353,0.0055353659990942106,0.0051041090046055615,0.004873336001764983,0.005287722498906078
2400,0.0053090220026206225,0.00536211600410752,0.005125832998601254,0.005232347997662146,0.005152076999365818,0.005325580001226626,0.005314099995302968,0.005018944997573271,0.005033102999732364,0.004948688998410944,0.005192212498513982
2450,0.005189526003960054,0.005464305002533365,0.005548720000660978,0.0053052390067023225,0.005576196999754757,0.00546430199756287,0.005259837998892181,0.005180125001061242,0.00553840499924263,0.005376506000175141,0.005420403998869006
2500,0.005387851997511461,0.005735236998589244,0.005358207999961451,0.005448737996630371,0.0052615830063587055,0.005289913999149576,0.005230082999332808,0.005241835999186151,0.0054178889986360446,0.005419741995865479,0.005373029998736456
2550,0.0057281800036435015,0.005886988998099696,0.005987743999867234,0.005530996000743471,0.0056097199994837865,0.005820910999318585,0.005996351996145677,0.005565430998103693,0.0057845889969030395,0.005873987000086345,0.005802749998110812
2600,0.005917299000429921,0.006157689000247046,0.005895592003071215,0.005635192996123806,0.006168974003230687,0.005953186999249738,0.005831305999890901,0.005788863003544975,0.0059723320009652525,0.0061746110004605725,0.005935242999839829
2650,0.00583527100388892,0.00612319399806438,0.005692250997526571,0.0058156960003543645,0.005429318000096828,0.005535003998375032,0.005854659000760876,0.005635236004309263,0.005675628999597393,0.005880852993868757,0.005753973498940468
2700,0.006276369000261184,0.005927575002715457,0.005777192003733944,0.005729783995775506,0.0059993560062139295,0.006017712999891955,0.006604859998333268,0.005807011999422684,0.00598771299701184,0.005904798999836203,0.005957643999863649
2750,0.005864322003617417,0.006308608004474081,0.006156614996143617,0.00588399399566697,0.006053787001292221,0.00623897399782436,0.005855104005604517,0.006323822002741508,0.005981340000289492,0.005840573001478333,0.006017563500790857
2800,0.00618759699864313,0.006541889997606631,0.0062886699961381964,0.006078480000724085,0.006181090000609402,0.006133718001365196,0.006354649995046202,0.005893952002224978,0.005923484000959434,0.006564846000401303,0.006184343499626266
2850,0.006301856999925803,0.006531505998282228,0.006217720001586713,0.006235940003534779,0.006011424004100263,0.0061789550018147565,0.006389084002876189,0.006294815000728704,0.006228213002032135,0.0062659329996677116,0.006250936501601245
2900,0.006463128003815655,0.006684161999146454,0.006544367999595124,0.006435439005144872,0.006385861001035664,0.006272885002545081,0.006227338002645411,0.00614797599700978,0.006286279996857047,0.006497100999695249,0.006410650003090268
2950,0.007113693995052017,0.006654306002019439,0.0065590390004217625,0.00647489200491691,0.0063789440027903765,0.00643087099888362,0.006447545005357824,0.00617464699462289,0.00644274599471828,0.006334250996587798,0.006445145500038052
3000,0.006984447005379479,0.0070722279997426085,0.006307001996901818,0.007099283997376915,0.006695676995150279,0.0064130419996217825,0.0065381800013710745,0.006478875002358109,0.006543495001096744,0.006454155001847539,0.006540837501233909
3050,0.006467298997449689,0.007364844001131132,0.006678510995698161,0.006908669995027594,0.006985234998865053,0.007539865000580903,0.006875795996165834,0.006716016003338154,0.006740459997672588,0.006426679996366147,0.006808127996919211
3100,0.007046573002298828,0.007261765000293963,0.006910620002599899,0.006844964998890646,0.0069165439999778755,0.0074434999987715855,0.007266650005476549,0.007693787003518082,0.007127499004127458,0.00675703700107988,0.007087036003213143
3150,0.006684348998533096,0.007616490998771042,0.0071934459992917255,0.006856786996650044,0.006995361000008415,0.007152609003242105,0.006787049998820294,0.00743479000084335,0.006926791000296362,0.007484152003598865,0.00707398500162526
3200,0.00695907800400164,0.007780824998917524,0.006895883998367935,0.006916036996699404,0.007024787999398541,0.007324846999836154,0.007112387997040059,0.007268824992934242,0.007297616000869311,0.00719041900447337,0.0071514035007567145
3250,0.00828293600352481,0.007665167999221012,0.006993465001869481,0.0073653039944474585,0.007306803003302775,0.00715661900176201,0.007014558002992999,0.006971814997086767,0.007227312002214603,0.007663349999347702,0.007267057502758689
3300,0.007205383000837173,0.008045135000429582,0.007019858996500261,0.008113711002806667,0.007322281999222469,0.007366672994976398,0.00745892299892148,0.007146782998461276,0.007214728000690229,0.007883289996243548,0.007344477497099433
3350,0.007513728000049014,0.008188841995433904,0.007419102003041189,0.0074207059951731935,0.007323115998588037,0.007227623995277099,0.007280580997758079,0.007346497994149104,0.007482269997126423,0.007986224998603575,0.007419903999107191
3400,0.007667869002034422,0.008123257000988815,0.007460173997969832,0.007490637995942961,0.007890232001955155,0.0075071869941893965,0.007724664996203501,0.007484777997888159,0.007667024998227134,0.007562321996374521,0.007614673497300828
3450,0.008045182999921963,0.00829468199663097,0.007563924002170097,0.007798895996529609,0.007623546996910591,0.007830549002392218,0.007555957003205549,0.007453545003954787,0.008035529994231183,0.0076837939996039495,0.007741344998066779
3500,0.0074835720006376505,0.009253498996258713,0.008047360999626108,0.00796827400336042,0.00783007199788699,0.008004664996406063,0.00823105800373014,0.008069677998719271,0.007620204996783286,0.0080016949941637,0.008003179995284881
3550,0.008520788003806956,0.008549357000447344,0.008371053001610562,0.008288871998956893,0.00791683500574436,0.008500812997226603,0.00788865899812663,0.00806246799766086,0.008302720001665875,0.0084376209997572,0.008336886501638219
3600,0.008482990000629798,0.008358311002666596,0.008354577999853063,0.007574290000775363,0.008127190994855482,0.00831712599756429,0.008138502002111636,0.009045573002367746,0.008365255998796783,0.008599414002674166,0.00835644450125983
3650,0.00847444999817526,0.008692887000506744,0.008065936002822127,0.008094484997855034,0.008541887000319548,0.008030554003198631,0.008202567005355377,0.008212173001084011,0.008395769997150637,0.008195283000532072,0.008207370003219694
3700,0.008238957001594827,0.008711411996046081,0.007892610999988392,0.00808216899895342,0.00868914799502818,0.008219543997256551,0.008988254994619638,0.008297234002384357,0.008252005005488172,0.008035019003727939,0.0082454810035415
3750,0.008359509003639687,0.00866306899843039,0.0083694770000875,0.008082923006440978,0.008234212000388652,0.008242830997915007,0.008156524003425147,0.008453132999420632,0.00887353099824395,0.008963264001067728,0.008364493001863593
3800,0.008868943994457368,0.00903761600056896,0.008878631000698078,0.008901968998543452,0.008337779996509198,0.008316059000208043,0.008451615998637863,0.008382302999962121,0.008682214000145905,0.008334680998814292,0.008566914999391884
3850,0.008646326001326088,0.009508934002951719,0.008515481997164898,0.00862818700261414,0.008520491996023338,0.0085369489970617,0.008429219997196924,0.008256275003077462,0.00831559100333834,0.008462097997835372,0.008517986996594118
3900,0.008404815998801496,0.009030906003317796,0.008886885996616911,0.009265407999919262,0.008857000000716653,0.009097392001422122,0.008986203996755648,0.008597505999205168,0.008744644997932483,0.008651022995763924,0.008871942998666782
3950,0.008909798998502083,0.009520659004920162,0.00922157299646642,0.009154957995633595,0.009116768000239972,0.008758730997215025,0.008686854002007749,0.008896473002096172,0.008981617000245024,0.00881153699447168,0.008945707999373553
4000,0.009151730002486147,0.009208253002725542,0.009030928995343857,0.009007123997434974,0.009382286996697076,0.009043161000590771,0.009083185999770649,0.009007749002194032,0.009902117999445181,0.00941093099390855,0.009117458001128398
4050,0.009546721004880965,0.009496716003923211,0.009082753000257071,0.009040407996508293,0.009062309000000823,0.008942783999373205,0.00904774600348901,0.009372985994559713,0.009361951997561846,0.009155360996373929,0.0091190569983155
4100,0.009368079001433216,0.009539705999486614,0.009929516003467143,0.009202990993799176,0.009237334998033475,0.010287133998645004,0.009617386996978894,0.009940438998455647,0.009505982998234686,0.009929290004947688,0.009578546498232754
4150,0.00993067000672454,0.009476751001784578,0.00947789599740645,0.00932108800043352,0.009395484004926402,0.009957948997907806,0.009570905000146013,0.010022684000432491,0.009727507997013163,0.010259877999487799,0.009649206498579588
4200,0.009614859001885634,0.009850017995631788,0.00997413100412814,0.00989454999944428,0.010852968000108376,0.009898169002553914,0.01038556000276003,0.010358807005104609,0.009842034996836446,0.009796878002816811,0.009896359500999097
4250,0.010306834999937564,0.009925425998517312,0.01013176899868995,0.010031420999439433,0.010713784002291504,0.010754557006293908,0.00985652400413528,0.009858243000053335,0.009458633998292498,0.010074220997921657,0.010052820998680545
4300,0.01041823299601674,0.010255533001327422,0.010142923005332705,0.010019276000093669,0.010041688998171594,0.010652354998455849,0.00961206600186415,0.010307004995411262,0.009910385000694077,0.010121418003109284,0.010132170504220994
4350,0.010140705002413597,0.010291792998032179,0.010061934997793287,0.010262297000735998,0.010139557001821231,0.010130898001079913,0.010055960003228392,0.01002792099461658,0.010264089003612753,0.010564956995949615,0.010140131002117414
4400,0.010065701993880793,0.010095161000208464,0.0102977339993231,0.010333484999137,0.010166452993871644,0.01184054699842818,0.010276351997163147,0.010471458997926675,0.010534392997215036,0.010721762002503965,0.01031560949923005
4450,0.01056288100517122,0.011157835004269145,0.010405579996586312,0.010317475003830623,0.010629422002239153,0.010647262999555096,0.01060649399732938,0.010527253994951025,0.010586383999907412,0.010693779004213866,0.010596438998618396
4500,0.01072516999556683,0.010987383997417055,0.010883221999392845,0.0109919379974599,0.01045455800340278,0.0105861880001612,0.010314808001567144,0.01053478700487176,0.010508630999538582,0.011852916999487206,0.010655678997864015
4550,0.011690412000461947,0.01097855500120204,0.01022065400320571,0.01075529200170422,0.010417133002192713,0.010631413999362849,0.010837169997103047,0.010651499993400648,0.010215503993094899,0.011170290999871213,0.010703395997552434
4600,0.01086773700080812,0.010333497004467063,0.010696889999962877,0.010981723004078958,0.010664105000614654,0.010303848001058213,0.010728991001087707,0.010907178999332245,0.010583343995676842,0.010406548004539218,0.010680497500288766
4650,0.010374461999163032,0.0108547690033447,0.010394692995760124,0.011192302001290955,0.010902659996645525,0.01221315700240666,0.011201162000361364,0.011083848999987822,0.010792966997541953,0.010531237996474374,0.010878714499995112
4700,0.010910823999438435,0.010879101006139535,0.011047296000469942,0.010950714000500739,0.010539311995671596,0.011158818000694737,0.010460979996423703,0.011258452999754809,0.010827944999618921,0.010533865002798848,0.010894962502788985
4750,0.010944251000182703,0.010875208005018067,0.011034759001631755,0.010614904000249226,0.01100859500002116,0.01077744899521349,0.01130695799656678,0.01093629599927226,0.010718001001805533,0.010971963994961698,0.010940273499727482
4800,0.011686888996337075,0.011585247004404664,0.010662184002285358,0.011035654999432154,0.010753604001365602,0.010785869999381248,0.010733622999396175,0.010862998002266977,0.011432945997512434,0.01104753900290234,0.010949326500849565
4850,0.011537061000126414,0.011130704006063752,0.011093583001638763,0.0113037519986392,0.011228657996980473,0.01168187300208956,0.011077359005867038,0.011217084000236355,0.010821463998581748,0.010753818998637144,0.011173894003150053
4900,0.011175130995979998,0.011393044005671982,0.010946186004730407,0.011237035992962774,0.011957522998272907,0.011084022000432014,0.011040281002351549,0.011174008999660145,0.01205693500378402,0.01201929400122026,0.011206083494471386
4950,0.012624615003005601,0.012344707000011113,0.011394707995350473,0.011990713996056002,0.011503982001158874,0.011742784998205025,0.011739456000213977,0.011627921994659118,0.011904826998943463,0.01106459600123344,0.0117411204992095
5000,0.012187009997433051,0.011448277997260448,0.011904472004971467,0.011278769998170901,0.011406075995182618,0.011381106996850576,0.011583973995584529,0.01105074500082992,0.011773412006732542,0.011565822002012283,0.011507049999636365
